Crop Yield Forecast in tidymodels - 3 Modelamiento en tidymodels con el motor ranger.
…
`summarise()` has grouped output by 'id', 'mtry', 'min_n', 'trees'. You can
override using the `.groups` argument.

metrics_rf_complete

# A tibble: 80 × 6
# Groups:   id, mtry, min_n, trees [20]
   id      mtry min_n trees .metric .estimate
   <chr>  <int> <int> <int> <chr>       <dbl>
 1 Fold01     6     2    52 mae       137.   
 2 Fold01     6     2    52 mape        2.23 
 3 Fold01     6     2    52 rmse      213.   
 4 Fold01     6     2    52 rsq         0.978
 5 Fold02     6     2    52 mae       100.   
 6 Fold02     6     2    52 mape        1.95 
 7 Fold02     6     2    52 rmse      150.   
 8 Fold02     6     2    52 rsq         0.992
 9 Fold03     6     2    52 mae        90.7  
10 Fold03     6     2    52 mape        1.35 
# … with 70 more rows
…
`summarise()` has grouped output by 'id', 'mtry', 'min_n', 'trees'. You can
override using the `.groups` argument.

metrics_rf_complete

# A tibble: 80 × 6
# Groups:   id, mtry, min_n, trees [20]
   id      mtry min_n trees .metric .estimate
   <chr>  <int> <int> <int> <chr>       <dbl>
 1 Fold01     2     2    68 mae       126.   
 2 Fold01     2     2    68 mape        2.18 
 3 Fold01     2     2    68 rmse      140.   
 4 Fold01     2     2    68 rsq         0.991
 5 Fold02     2     2    68 mae       111.   
 6 Fold02     2     2    68 mape        2.12 
 7 Fold02     2     2    68 rmse      181.   
 8 Fold02     2     2    68 rsq         0.984
 9 Fold03     2     2    68 mae       124.   
10 Fold03     2     2    68 mape        1.83 
# … with 70 more rows
…
