Crop Yield Forecast in tidymodels - 2 Modelamiento en tidymodels con el motor lm.
…
lasso_coefs %>% select(id, term, penalty, estimate)

# A tibble: 15,608 × 4
   id     term        penalty estimate
   <chr>  <chr>         <dbl>    <dbl>
 1 Fold01 (Intercept)  0.224      8.76
 2 Fold01 (Intercept)  0.204      8.62
 3 Fold01 (Intercept)  0.186      8.49
 4 Fold01 (Intercept)  0.169      8.37
 5 Fold01 (Intercept)  0.154      8.26
 6 Fold01 (Intercept)  0.141      8.16
 7 Fold01 (Intercept)  0.128      8.07
 8 Fold01 (Intercept)  0.117      7.98
 9 Fold01 (Intercept)  0.106      7.91
10 Fold01 (Intercept)  0.0970     7.84
# … with 15,598 more rows
…
2.6.5 Coeficientes en cada folio

lm_coefs <-
  validacion_lm %>%
  select(id, .extracts) %>%
  unnest(.extracts) %>%
  select(id, .extracts) %>%
  group_by(id) %>%
  dplyr::slice(1) %>%
  ungroup() %>%
  unnest(.extracts)

lm_coefs %>% select(id, term, estimate)

# A tibble: 240 × 3
   id     term               estimate
   <chr>  <chr>                 <dbl>
 1 Fold01 (Intercept)         2.04   
 2 Fold01 fruitmass          -5.48   
 3 Fold01 fruitset            2.31   
 4 Fold01 seeds               2.21   
 5 Fold01 osmia               0.0408 
 6 Fold01 andrena             0.0286 
 7 Fold01 bumbles            -0.0713 
 8 Fold01 MinOfUpperTRange    0.00523
 9 Fold01 clonesize          -0.00461
10 Fold01 AverageRainingDays  0.00593
# … with 230 more rows
…
# Métricas individuales de cada una de las particiones
metrics_lm_complete <- 
  validacion_lm %>%
  unnest(.predictions) %>%
  group_by(id) %>%
  multi_met(truth = `yield`,
            estimate = `.pred`) %>%
  ungroup() %>%
  dplyr::mutate(modelo = "lm")
metrics_lm_complete

# A tibble: 80 × 5
   id     .metric .estimator .estimate modelo
   <chr>  <chr>   <chr>          <dbl> <chr> 
 1 Fold01 rmse    standard       115.  lm    
 2 Fold02 rmse    standard       193.  lm    
 3 Fold03 rmse    standard        85.5 lm    
 4 Fold04 rmse    standard       117.  lm    
 5 Fold05 rmse    standard       102.  lm    
 6 Fold06 rmse    standard        70.4 lm    
 7 Fold07 rmse    standard        92.7 lm    
 8 Fold08 rmse    standard        92.6 lm    
 9 Fold09 rmse    standard       106.  lm    
10 Fold10 rmse    standard       131.  lm    
# … with 70 more rows
…
