Crop Yield Forecast in tidymodels - 4 Revisión de muchos modelos y Ensamblado de modelos en tidymodels.
…
El siguiente resultado rankea u ordena los resultados de los algoritmos en validación cruzada según el rmse.

bayes_results %>% 
   rank_results() %>% 
   filter(.metric == "rmse") %>% 
   select(model, .config, rmse = mean, rank)

# A tibble: 103 × 4
   model        .config                rmse  rank
   <chr>        <chr>                 <dbl> <int>
 1 linear_reg   Preprocessor1_Model08  110.     1
 2 linear_reg   Preprocessor1_Model04  110.     2
 3 linear_reg   Preprocessor1_Model05  111.     3
 4 linear_reg   Preprocessor1_Model03  111.     4
 5 linear_reg   Preprocessor1_Model06  111.     5
 6 cubist_rules Preprocessor1_Model06  111.     6
 7 mlp          Preprocessor1_Model01  111.     7
 8 cubist_rules Preprocessor1_Model02  111.     8
 9 cubist_rules Preprocessor1_Model04  111.     9
10 linear_reg   Preprocessor1_Model10  112.    10
# … with 93 more rows
…
Warning: `pull_workflow()` was deprecated in workflowsets 0.1.0.
ℹ Please use `extract_workflow()` instead.

metrics_best <-
  fit_best %>% 
  collect_metrics()

fit_best %>% 
  collect_predictions()

# A tibble: 127 × 5
   id               .pred  .row yield .config             
   <chr>            <dbl> <int> <dbl> <chr>               
 1 train/test split 6041.     1 5996. Preprocessor1_Model1
 2 train/test split 5499.     3 5502. Preprocessor1_Model1
 3 train/test split 4148.     6 3968. Preprocessor1_Model1
 4 train/test split 3262.     8 3139. Preprocessor1_Model1
 5 train/test split 6345.     9 6126. Preprocessor1_Model1
 6 train/test split 6256.    12 6244. Preprocessor1_Model1
 7 train/test split 5668.    15 5482. Preprocessor1_Model1
 8 train/test split 6617.    17 6578. Preprocessor1_Model1
 9 train/test split 7328.    18 7267. Preprocessor1_Model1
10 train/test split 5883.    19 5747. Preprocessor1_Model1
# … with 117 more rows
…
